Notes to Myself - Titanic Modelling
…
Code

#show_notes(.Last.tune.result)

LR Predict

Code

lr_test_predictions <- lr_fit %>% collect_predictions()
lr_test_predictions

# A tibble: 224 × 7
   id               .pred_0 .pred_1  .row .pred_class survived .config          
   <chr>              <dbl>   <dbl> <int> <fct>       <fct>    <chr>            
 1 train/test split  0.346   0.654      3 1           1        Preprocessor1_Mo…
 2 train/test split  0.0685  0.931      4 1           1        Preprocessor1_Mo…
 3 train/test split  0.920   0.0802     5 0           0        Preprocessor1_Mo…
 4 train/test split  0.569   0.431     11 0           1        Preprocessor1_Mo…
 5 train/test split  0.622   0.378     31 0           0        Preprocessor1_Mo…
 6 train/test split  0.277   0.723     33 1           1        Preprocessor1_Mo…
 7 train/test split  0.670   0.330     35 0           0        Preprocessor1_Mo…
 8 train/test split  0.811   0.189     36 0           0        Preprocessor1_Mo…
 9 train/test split  0.902   0.0975    37 0           1        Preprocessor1_Mo…
10 train/test split  0.554   0.446     39 0           0        Preprocessor1_Mo…
# … with 214 more rows
…
