Notes to Myself - Titanic from Kaggle
…
Code

#show_notes(.Last.tune.result)

LR Predict

Code

lr_test_predictions <- lr_fit %>% collect_predictions() %>% 
  rename(survived_pred = survived) %>% 
  bind_cols(train_test)
lr_test_predictions

# A tibble: 224 × 26
   id       .pred_0 .pred_1  .row .pred…¹ survi…² .config passe…³ survi…⁴ pclass
   <chr>      <dbl>   <dbl> <int> <fct>   <fct>   <chr>     <dbl> <fct>   <fct> 
 1 train/t…  0.0948 9.05e-1    10 1       1       Prepro…      10 1       2     
 2 train/t…  1.00   2.63e-7    11 0       1       Prepro…      11 1       3     
 3 train/t…  0.996  4.01e-3    14 0       0       Prepro…      14 0       3     
 4 train/t…  0.749  2.51e-1    18 0       1       Prepro…      18 1       2     
 5 train/t…  0.122  8.78e-1    20 1       1       Prepro…      20 1       3     
 6 train/t…  0.309  6.91e-1    23 1       1       Prepro…      23 1       3     
 7 train/t…  0.887  1.13e-1    28 0       0       Prepro…      28 0       1     
 8 train/t…  0.473  5.27e-1    40 1       1       Prepro…      40 1       3     
 9 train/t…  0.468  5.32e-1    41 1       0       Prepro…      41 0       3     
10 train/t…  0.862  1.38e-1    51 0       0       Prepro…      51 0       3     
# … with 214 more rows, 16 more variables: name <fct>, sex <fct>, age <dbl>,
#   sib_sp <dbl>, parch <dbl>, ticket <fct>, fare <dbl>, cabin <fct>,
#   embarked <fct>, train_test <fct>, pax_type <fct>, surname <fct>,
#   cabin_preface <fct>, ticket_group <fct>, family_group <ord>,
#   age_group <ord>, and abbreviated variable names ¹​.pred_class,
#   ²​survived_pred, ³​passenger_id, ⁴​survived
…
parallel::stopCluster(cl)

Following still to be fixed!

Code

#lr_param <- extract_parameter_set_dials(lr_spec)

lr_resample_test_predictions <- collect_predictions(lr_fit_cv) %>% 
  rename(survived_pred = survived) 
#  bind_cols(testing(train_split))
lr_resample_test_predictions

# A tibble: 667 × 7
   id    .pred_0 .pred_1  .row .pred_class survived_pred .config             
   <chr>   <dbl>   <dbl> <int> <fct>       <fct>         <chr>               
 1 Fold1   0.888 0.112       2 0           0             Preprocessor1_Model1
 2 Fold1   0.756 0.244      10 0           0             Preprocessor1_Model1
 3 Fold1   0.932 0.0677     15 0           0             Preprocessor1_Model1
 4 Fold1   0.187 0.813      20 1           0             Preprocessor1_Model1
 5 Fold1   0.919 0.0810     26 0           0             Preprocessor1_Model1
 6 Fold1   0.978 0.0219     29 0           0             Preprocessor1_Model1
 7 Fold1   0.974 0.0265     34 0           0             Preprocessor1_Model1
 8 Fold1   0.993 0.00666    36 0           0             Preprocessor1_Model1
 9 Fold1   0.921 0.0793     43 0           0             Preprocessor1_Model1
10 Fold1   0.924 0.0763     44 0           0             Preprocessor1_Model1
# … with 657 more rows
…
Bit hard to make much of it, but say min_n between 10 and 40 and mtry between 10 and 30?

Code

rf_grid <- grid_regular(
  mtry(range = c(5, 40)),
  min_n(range = c(5, 30)),
  levels = 5
)

rf_grid

# A tibble: 25 × 2
    mtry min_n
   <int> <int>
 1     5     5
 2    13     5
 3    22     5
 4    31     5
 5    40     5
 6     5    11
 7    13    11
 8    22    11
 9    31    11
10    40    11
# … with 15 more rows
…
set.seed(1234)
xgboost_usemodel_tune <-
  tune_grid(xgboost_usemodel_wflow, resamples = folds, grid = xgb_grid)

parallel::stopCluster(cl)

0.8.3 XGB - Usemodel Best Parameter Settings

Code

xgb_tuning_metrics_usemodel <- collect_metrics(xgboost_usemodel_tune)
xgb_tuning_metrics_usemodel

# A tibble: 60 × 13
    mtry trees min_n tree_depth learn_r…¹ loss_r…² sampl…³ .metric .esti…⁴  mean
   <int> <int> <int>      <int>     <dbl>    <dbl>   <dbl> <chr>   <chr>   <dbl>
 1    11   848    17          1   5.59e-3 5.81e- 3   0.539 accura… binary  0.708
 2    11   848    17          1   5.59e-3 5.81e- 3   0.539 roc_auc binary  0.823
 3     9  1145    10          2   5.20e-8 1.60e- 1   0.866 accura… binary  0.702
 4     9  1145    10          2   5.20e-8 1.60e- 1   0.866 roc_auc binary  0.821
 5    17   740    15          2   8.39e-2 6.64e- 9   0.252 accura… binary  0.743
 6    17   740    15          2   8.39e-2 6.64e- 9   0.252 roc_auc binary  0.776
 7    12   690    38          2   3.89e-9 5.16e-10   0.146 accura… binary  0.616
 8    12   690    38          2   3.89e-9 5.16e-10   0.146 roc_auc binary  0.5  
 9    10  1314    11          3   1.72e-5 1.25e- 1   0.163 accura… binary  0.616
10    10  1314    11          3   1.72e-5 1.25e- 1   0.163 roc_auc binary  0.757
# … with 50 more rows, 3 more variables: n <int>, std_err <dbl>, .config <chr>,
#   and abbreviated variable names ¹​learn_rate, ²​loss_reduction, ³​sample_size,
#   ⁴​.estimator
…
Code

parallel::stopCluster(cl)

Code

xgb_tuning_metrics <- collect_metrics(xgb_tuning_result)
xgb_tuning_metrics

# A tibble: 60 × 13
    mtry trees min_n tree_depth learn_r…¹ loss_r…² sampl…³ .metric .esti…⁴  mean
   <int> <int> <int>      <int>     <dbl>    <dbl>   <dbl> <chr>   <chr>   <dbl>
 1    11   848    17          1   5.59e-3 5.81e- 3   0.539 accura… binary  0.775
 2    11   848    17          1   5.59e-3 5.81e- 3   0.539 roc_auc binary  0.844
 3     9  1145    10          2   5.20e-8 1.60e- 1   0.866 accura… binary  0.775
 4     9  1145    10          2   5.20e-8 1.60e- 1   0.866 roc_auc binary  0.842
 5    17   740    15          2   8.39e-2 6.64e- 9   0.252 accura… binary  0.718
 6    17   740    15          2   8.39e-2 6.64e- 9   0.252 roc_auc binary  0.753
 7    12   690    38          2   3.89e-9 5.16e-10   0.146 accura… binary  0.616
 8    12   690    38          2   3.89e-9 5.16e-10   0.146 roc_auc binary  0.5  
 9    10  1314    11          3   1.72e-5 1.25e- 1   0.163 accura… binary  0.616
10    10  1314    11          3   1.72e-5 1.25e- 1   0.163 roc_auc binary  0.721
# … with 50 more rows, 3 more variables: n <int>, std_err <dbl>, .config <chr>,
#   and abbreviated variable names ¹​learn_rate, ²​loss_reduction, ³​sample_size,
#   ⁴​.estimator
…
0.11.5 Fit Member Models

Code

ensemble <- fit_members(ensemble)
collect_parameters(ensemble,"xgb_tuning_result")

# A tibble: 27 × 10
   member          mtry trees min_n tree_…¹ learn…² loss_r…³ sampl…⁴ terms  coef
   <chr>          <int> <int> <int>   <int>   <dbl>    <dbl>   <dbl> <chr> <dbl>
 1 xgb_tuning_re…    11   848    17       1 5.59e-3 5.81e- 3   0.539 .pre…     0
 2 xgb_tuning_re…     9  1145    10       2 5.20e-8 1.60e- 1   0.866 .pre…     0
 3 xgb_tuning_re…    17   740    15       2 8.39e-2 6.64e- 9   0.252 .pre…     0
 4 xgb_tuning_re…    10  1314    11       3 1.72e-5 1.25e- 1   0.163 .pre…     0
 5 xgb_tuning_re…    18  1475    25       3 1.50e-6 2.46e- 9   0.328 .pre…     0
 6 xgb_tuning_re…     6    98    23       4 4.07e-4 1.02e- 3   0.897 .pre…     0
 7 xgb_tuning_re…     7   923    13       5 1.66e-3 1.78e- 5   0.352 .pre…     0
 8 xgb_tuning_re…    16   610    26       5 1.14e-5 1.88e-10   0.211 .pre…     0
 9 xgb_tuning_re…    16  1549     6       7 1.36e-4 4.92e- 4   0.463 .pre…     0
10 xgb_tuning_re…    14  1900    22       7 2.14e-7 3.46e- 6   0.447 .pre…     0
# … with 17 more rows, and abbreviated variable names ¹​tree_depth, ²​learn_rate,
#   ³​loss_reduction, ⁴​sample_size
…
